<?xml version="1.0" encoding="utf-8"?>
<!-- Generator: Adobe Illustrator 21.0.2, SVG Export Plug-In . SVG Version: 6.00 Build 0)  -->
<svg version="1.1" id="guides" xmlns="http://www.w3.org/2000/svg" xmlns:xlink="http://www.w3.org/1999/xlink" x="0px" y="0px"
	 viewBox="0 0 2858.6 2858.6" style="enable-background:new 0 0 2858.6 2858.6;" xml:space="preserve">
<style type="text/css">
	.st0{fill:none;}
</style>
<title>futourist_logo_v2</title>
<polygon class="st0" points="787.7,1347.2 870.1,1347.2 870.1,1527.2 929.2,1527.2 929.2,1347.2 1011.2,1347.2 1011.2,1288 
	787.7,1288 "/>
<polygon class="st0" points="2313,1288 2313,1347.2 2395.4,1347.2 2395.4,1527.2 2454.5,1527.2 2454.5,1347.2 2536.5,1347.2 
	2536.5,1288 "/>
<polygon class="st0" points="1977.3,1541.6 1977.2,1541.6 1977.2,1584.2 2036.4,1584.2 2036.4,1400.5 1977.3,1400.5 "/>
<rect x="1977.2" y="1400.4" class="st0" width="0.1" height="0.1"/>
<path class="st0" d="M1203.4,1281.7c-84.7,0-153.7,69-153.7,153.7s69,153.7,153.7,153.7s153.7-69,153.7-153.7
	S1288.1,1281.7,1203.4,1281.7z M1203.4,1528.2c-51.2,0-92.8-41.5-92.8-92.8s41.5-92.8,92.8-92.8s92.8,41.5,92.8,92.8l0,0
	C1296.1,1486.6,1254.6,1528.2,1203.4,1528.2C1203.4,1528.2,1203.4,1528.2,1203.4,1528.2z"/>
<path class="st0" d="M669.7,1475.2c-0.4,30.8-25.7,55.4-56.5,55c-30.2-0.4-54.6-24.8-55-55v-74.8H499v75.2
	c0.6,63.5,52.5,114.4,116,113.8c62.6-0.6,113.3-51.2,113.8-113.8V1347h-59.1V1475.2z"/>
<path class="st0" d="M1583.7,1475.2c-0.4,30.8-25.7,55.4-56.5,55c-30.2-0.4-54.6-24.8-55-55V1347H1413v128.6
	c0.6,63.5,52.5,114.4,116,113.8c62.6-0.6,113.3-51.2,113.8-113.8v-75.2h-59.2L1583.7,1475.2z"/>
<polygon class="st0" points="288.2,1527.2 347.4,1527.2 347.4,1461 407,1461 407,1401.6 347.4,1401.6 347.4,1347.2 460.9,1347.2 
	460.9,1288 288.2,1288 "/>
<path class="st0" d="M1904.5,1376.7c0-49-39.7-89.1-88.7-89.1h-111.5v177.9h59.2l0,0h29.6l28.8,61.7h63.1l-32.3-69.8
	C1884.3,1443.2,1904.6,1411.5,1904.5,1376.7z M1815.8,1406.3h-52.4v-59.6h52.4c16.4,0.1,29.7,13.5,29.6,29.9c0,0,0,0,0,0.1
	c0.1,16.2-13,29.5-29.2,29.6C1816,1406.3,1815.9,1406.3,1815.8,1406.3L1815.8,1406.3z"/>
<path class="st0" d="M2227.9,1415.6l-60.2-19.9c-14.5-5.4-21.9-21.4-16.6-36c4-10.9,14.4-18.2,26.1-18.3h15.4
	c9.1-0.1,17.9,2.9,25,8.5l28.7-49.8c-15.4-11.9-34.3-18.4-53.7-18.4h-15.4c-48.4,0-87.7,39.3-87.6,87.7c0,37,23.3,70,58.1,82.5
	l59,19.5c11.3,4.8,18.6,15.9,18.4,28.1c0,16.9-13.7,30.6-30.6,30.6H2172c-12.4,0-23.7-4-30.8-13.7l-30.6,49.2
	c16.7,15.5,38.6,24.1,61.4,24.2h22.4c49.9-0.1,90.3-40.5,90.3-90.3C2284.8,1462.1,2262.4,1429.2,2227.9,1415.6z"/>
</svg>
